{
  "name": "Wordpress Embed",
  "name-lang": {
    "es-ES": "Wordpress Embed",
    "en-US": "Wordpress Embed"
  },
  "identifier": "wpembed",
  "description": {
    "es-ES": "Mejora la experiencia y la navegación de tus seguidores, incrustando tu página web directamente en la aplicación que estás desarrollando. Simplemente entra la dirección de tu página y sincroniza el contenido para ofrecer el mejor servicio a tus clientes.",
    "en-US": "Improve the experience and the navigation of your followers, embedding your web page directly into the application you are developing. Simply enter your web address and synchronize its content to offer the best service to your customers."
  },
  "documentation": {
    "es-ES": "modules/wpembed/documentation/es_ES.md",
    "en-US": "modules/wpembed/documentation/en_US.md"
  },
  "descriptionShort": {
    "es-ES": "Incrusta una página wordpress en tu App!",
    "en-US": "Embed a wordpress webpage inside of your app!"
  },
  "icon": "code",
  "type": "A",
  "version": "1.3.1",
  "author": "King of App",
  "category": [
    "others"
  ],
  "price": 0,
  "subscription": false,
  "canContain": false,
  "platforms": [
    "android",
    "ios",
    "windows"
  ],
  "view": "modules/wpembed/index.html",
  "files": [
    "modules/wpembed/controller.js",
    "modules/wpembed/directive.js",
    "modules/wpembed/styles.html"
  ],
  "deps":"cordova-plugin-inappbrowser",
  "libs": [
    {
      "bower": {
        "iframe-resizer": "^3.5.3"
      },
      "src": "bower_components/iframe-resizer/js/iframeResizer.min.js"
    }
  ],
  "scope": {
    "url": "",
    "delay": 10,
    "text": "",
    "img": "",
    "enabledLoader": false
  },
  "scope-lang": {
    "es-ES": {
      "langUrl": "",
      "langdelay": 10,
      "langtext": "",
      "langimg": ""
    },
    "en-US": {
      "langUrl": "",
      "langdelay": 10,
      "langtext": "",
      "langimg": ""
    }
  },
  "config": [
    {
      "templateOptions": {
        "label": "Url",
        "pattern": "(https?://)([/\\w.()-]*).*",
        "required": true,
        "description": "url del embed"
      },
      "type": "input",
      "key": "url"
    },
    {
      "type": "checkbox",
      "key": "enabledLoader",
      "templateOptions": {
        "label": "Enable loader"
      }
    },
    {
      "type": "input",
      "key": "delay",
      "templateOptions": {
        "type": "number",
        "placeholder": 10,
        "label": "Loader delay"
      }
    },
    {
      "type": "input",
      "key": "text",
      "templateOptions": {
        "type": "text",
        "placeholder": "We are loading...",
        "label": "Loader text"
      }
    },
    {
      "type": "input",
      "key": "img",
      "templateOptions": {
        "type": "url",
        "placeholder": "https://example.com/image.jpg",
        "label": "Loader image",
        "description": "image size 800 x 600"
      }
    }
  ],
  "config-lang": [
    {
      "key": "langUrl",
      "type": "input",
      "templateOptions": {
        "label": "Url",
        "pattern": "(https?://)([/\\w.()-]*).*",
        "descrition": "Url del embed para multi lenguaje "
      }
    },
    {
      "type": "input",
      "key": "langdelay",
      "templateOptions": {
        "type": "number",
        "placeholder": 10,
        "label": "Loader delay"
      }
    },
    {
      "type": "input",
      "key": "langtext",
      "templateOptions": {
        "type": "text",
        "placeholder": "We are loading...",
        "label": "Loader text"
      }
    },
    {
      "type": "input",
      "key": "langimg",
      "templateOptions": {
        "type": "url",
        "placeholder": "https://example.com/image.jpg",
        "label": "Loader image",
        "description": "image size 800 x 600"
      }
    }
  ],
  "showOn": {
    "menu": true,
    "market": true,
    "dragDrop": true
  },
  "images": {
    "list": "modules/wpembed/images/list.png",
    "screenshots": [
      "modules/wpembed/images/Embed_screenshot01.png",
      "modules/wpembed/images/Embed_screenshot02.png"
    ],
    "popover": "modules/wpembed/images/banner1.png",
    "banner": "modules/wpembed/images/banner1.png",
    "logo": "modules/wpembed/images/icon.png"
  }
}